<?xml version="1.0" encoding="UTF-8"?>
<svg width="81px" height="33px" viewBox="0 0 81 33" version="1.1" xmlns="http://www.w3.org/2000/svg" xmlns:xlink="http://www.w3.org/1999/xlink">
    <!-- Generator: Sketch 52.2 (67145) - http://www.bohemiancoding.com/sketch -->
    <title>Group 3</title>
    <desc>Created with Sketch.</desc>
    <g id="Page-1" stroke="none" stroke-width="1" fill="none" fill-rule="evenodd">
        <g id="Simple-Landing-Page" transform="translate(-82.000000, -39.000000)">
            <g id="Group-3" transform="translate(81.000000, 40.000000)">
                <text id="UniverS-S" fill-rule="nonzero" font-family="Lato-Bold, Lato" font-size="18" font-weight="bold" letter-spacing="0.17" fill="#FFFFFF">
                    <tspan x="0" y="31">Univer</tspan>
                    <tspan x="54.354" y="31" font-family="Lato-Light, Lato" font-weight="300" letter-spacing="2.07">S S</tspan>
                </text>
                <g id="Group-2" transform="translate(63.000000, 0.000000)" stroke="#FFFFFF">
                    <path d="M3.8100915,13 L3.81008962,28.9135708 C3.75047775,29.9606146 3.30822915,30.4841365 2.48334382,30.4841365 C1.65845849,30.4841365 1.16401055,30.4841365 1,30.4841365" id="Path-4"></path>
                    <path d="M10.0100915,13 L10.0100896,28.9135708 C9.95047775,29.9606146 9.50822915,30.4841365 8.68334382,30.4841365 C7.85845849,30.4841365 7.36401055,30.4841365 7.2,30.4841365" id="Path-4" transform="translate(8.605046, 21.742068) scale(-1, 1) translate(-8.605046, -21.742068) "></path>
                    <g id="Group" fill="#FFFFFF" fill-opacity="0.132897418">
                        <path d="M3,13 L8,13 C7.9355277,6.66760403 7.90329156,3.30933617 7.90329156,2.92519642 C7.79139794,2.01618249 6.87486436,0.154090229 5.5,0.00703618593 C4.12513564,-0.140017857 3,2.05719272 3,2.92519642 C3,3.04111895 3,6.39938681 3,13 Z" id="Path-2"></path>
                        <path d="M8,5 C8.45048473,5.72651914 8.87423394,6.33175073 9.27124764,6.81569475 C9.86676818,7.54161079 10.4394579,8.06214022 10.5783222,8.40248307 C10.9269945,8.8489133 11.0594371,10.0480856 10.9756499,12 L8,12 L8,5 Z" id="Path-5"></path>
                        <path d="M3,5 L3,12 L0.0243500956,12 C-0.0594370508,10.0480856 0.073005526,8.8489133 0.421677826,8.40248307 C0.560542065,8.06214022 1.13323182,7.54161079 1.72875236,6.81569475 C2.12576606,6.33175073 2.54951527,5.72651914 3,5 Z" id="Path-5"></path>
                    </g>
                </g>
            </g>
        </g>
    </g>
</svg>